{
	"auth": {
		"kairos0be9f016": {
			"service": "Cognito",
			"providerPlugin": "awscloudformation",
			"dependsOn": []
		}
	},
	"storage": {
		"admin": {
			"service": "S3",
			"providerPlugin": "awscloudformation"
		}
	}
}